Project 1: Wrangling, Exploration, Visualization
…
combinedcountyfinal %>% group_by(urban.rural.classification) %>% 
    summarize(count = n())

## # A tibble: 2 x 2
##   urban.rural.classification count
##   <chr>                      <int>
## 1 Rural                        172
## 2 Urban                         82

combinedcountyfinal %>% filter(str_detect(percentage.fully.vaccinated, 
    "^[156789]")) %>% arrange(desc(percentage.fully.vaccinated))

## # A tibble: 92 x 8
##    county food.environmen primary.care.ph urban.rural.cla people.vaccinat
##    <chr>             <dbl>            <dbl> <chr>                       <dbl>
##  1 Presi              2.7                2 Rural                        6427
##  2 Webb                6.5               86 Urban                      242360
##  3 Starr               3.7               14 Rural                       49768
##  4 Maver              5.3               17 Rural                       53167
##  5 Camer              6                208 Urban                      325786
##  6 Hidal              5.3              399 Urban                      643756
##  7 El Pa              7                407 Urban                      621042
##  8 Fort               8                677 Urban                      574924
##  9 Travis              7.6             1078 Urban                      901419
## 10 Collin              8.4             1019 Urban                      694194
## #  with 82 more rows, and 3 more variables: people.fully.vaccinated <dbl>,
## #   population.12.and.older <dbl>, percentage.fully.vaccinated <dbl>

combinedcountyfinal %>% filter(str_detect(percentage.fully.vaccinated, 
    "^[234]")) %>% arrange(percentage.fully.vaccinated)

## # A tibble: 162 x 8
##    county food.environmen primary.care.ph urban.rural.cla people.vaccinat
##    <chr>             <dbl>            <dbl> <chr>                       <dbl>
##  1 King                5.6                0 Rural                          58
##  2 Loving              2.6                0 Rural                          41
##  3 Newton              5.8               NA Urban                        3490
##  4 Gaines              8.2                4 Rural                        4773
##  5 Motley              7                  0 Rural                         436
##  6 Lipsc              5.7               NA Rural                         974
##  7 Rober              7                  0 Rural                         265
##  8 Colli              7.7                1 Rural                         967
##  9 Dicke              6.9                1 Rural                         738
## 10 Borden              6.9                0 Rural                         219
## #  with 152 more rows, and 3 more variables: people.fully.vaccinated <dbl>,
## #   population.12.and.older <dbl>, percentage.fully.vaccinated <dbl>
…
